module gitlab.com/gitlab-org/fleeting/nesting

go 1.18

require (
	google.golang.org/grpc v1.50.0
	google.golang.org/protobuf v1.28.1
)

require (
	github.com/golang/protobuf v1.5.2 // indirect
	golang.org/x/net v0.0.0-20221012135044-0b7e1fb9d458 // indirect
	golang.org/x/sys v0.0.0-20221010170243-090e33056c14 // indirect
	golang.org/x/text v0.3.8 // indirect
	google.golang.org/genproto v0.0.0-20221010155953-15ba04fc1c0e // indirect
)
